{
  "type": "service_account",
  "project_id": "bao-personal-cloud",
  "private_key_id": "dff64c80b744b68db76a13c911d2d332b8f3ec13",
  "private_key": "-----BEGIN PRIVATE KEY-----\nMIIEvAIBADANBgkqhkiG9w0BAQEFAASCBKYwggSiAgEAAoIBAQDvjiHmjKczcTU6\nwk5c9rVmjFiaXTn3SqCTmm3exgawU/jmtiYqJP7egj6Mc/H0cAmw8z31vPfM6Mlm\nqGqxXlCsDji5ijBHWhrD8fTAtX1JLKRW8ajPwS8bPpruxN4jLZiNszJCjIlSOTwx\nUOFbrnjYtpNMyb9OaST1xtXpye9bjEFDlmjSYvMsuOF5T2xCn6/nZ8qXPl5IrwDI\nMVqtnIX2j9cy0fFE3LIhDQjiYCeeoeQNYzatbY0Ml8DMew3awMcW33gSXTsA6VK2\nGKJSqRF0NJrDtmbmawGZYaq2ZIyx+no0qX0WMp8xgNTy2rrqRB+jMuocTECDLPn+\n2R2WFVULAgMBAAECggEAFULHlncoRcQH5eGl49FPkzzkhjq88MoySzdbBfkMUez5\n+7vx0i67YhMsKvoFYNzqt0Y3Ww587bZBXbeX1Isa3NJcTXdKxqJkGrzoLIxPBMYO\nBdtn0JyEKkZZqNRXJMcgsX7UeJyReXcz9OqJPcJT3mQB2cBUFsj1K00M4jV2ZWj2\n0Jfz6wXyxoKG3l0Ao57IjjE+VE2DFGrL2zXCklsX9RJs5ZxqoYi+qPxsC4eLjCpA\nCNdifzb3Jfnn3c40Oa6X5d4F6YPe6J1fXq4O1e+YvBYLm+ETyQTo43QZPelZV0LJ\nDCOP6VIxoZqxyLMzhRgQr6ycjv7STd0aaI/xqZXkOQKBgQD8gDh3Yi/hElbUsSaw\nKlQZ4FRJWypSV4RrHw7d7v6F33NMU+2NOr02RaYRYicWG2gqFytaFZZ3pTXHjXOM\ntc3I2kXktX8QqiW0NMd1ojNSpauTMVXSoA62f9JPPWQ50WQpDBdJFSlW2M6zub17\nySGz5JNdHgOm2BItV8qo9TpcYwKBgQDy3/xHQ57YQAtqjkm+gpyEiJ1OxaWlWfz0\nEVRoRgl81kkx2nR/8h6YUreTIconKFke5qQpgEBCDqw1P43q//yKVLjsIn6YWW/A\n67iU7wbp7mNePHTLugRysf+lrXuBFfgT5WcibRU2T2URg+R7hh4u7jW74lc+SjFY\nDjqRhXohOQKBgGBqkaU8j+3Qs+lZj91a/Gw5FdZBAoMYug6xeFrUhMoXzg4KSj5Q\nfKm5pLUklqpBYuAXos0uSxt6sXN2lvXXAjI87s1rZI63edg7AyLvAcwASOjWwN/B\nkHytiGALoDbXtvhZjpawhu2Lsjo8pZcb8Uug74hyCpDuFtrLmC42HcfjAoGAc4kp\nsZzxS13sEFxvqDjpzAJREs/i5K3SLyivRotKqCAn4ZdSJCtBcqSmv08ro0UGYDTH\nkxZ3evUP5qS9FjWAJS34ahxerIqfJt77h53NZCsLCiEoTmHHC+iw/FdykQ2qXYyb\naz0JAjTyl0puvnQml5yp4x7g8bjJkGH0apVca8ECgYBVJwSrm+x8OBnjRot1FGOZ\nUBqKogL06YDMVE3tssvmhW61w8jeOUyL4GltmNIShrmPB6eVI4jMJSi+qoHcYTrm\n5Hz/SyK5NgxHf+7QRYBXlQY9BSl0kmHCirqFz0ModXWIy5XE/yUCXm3AQjQES2ck\nxXg/TkekD9fBZSBfQcJHpg==\n-----END PRIVATE KEY-----\n",
  "client_email": "388398746212-compute@developer.gserviceaccount.com",
  "client_id": "105622119084918968346",
  "auth_uri": "https://accounts.google.com/o/oauth2/auth",
  "token_uri": "https://oauth2.googleapis.com/token",
  "auth_provider_x509_cert_url": "https://www.googleapis.com/oauth2/v1/certs",
  "client_x509_cert_url": "https://www.googleapis.com/robot/v1/metadata/x509/388398746212-compute%40developer.gserviceaccount.com"
}
